﻿Status	Name	IP	Radmin	Http	Https	Ftp	Rdp	Shared folders	NetBIOS group	Manufacturer	MAC address	User	Comments
Ok	192.168.254.10	192.168.254.10		GoAhead-Webs httpd						Cisco	34:A8:4E:0B:14:7D		
Unknown	192.168.254.100	192.168.254.100									00:00:00:00:00:00		
Unknown	192.168.254.101	192.168.254.101									00:00:00:00:00:00		
Unknown	192.168.254.103	192.168.254.103									00:00:00:00:00:00		
Unknown	192.168.254.104	192.168.254.104									00:00:00:00:00:00		
Unknown	192.168.254.105	192.168.254.105									00:00:00:00:00:00		
Unknown	192.168.254.106	192.168.254.106									00:00:00:00:00:00		
Unknown	192.168.254.107	192.168.254.107									00:00:00:00:00:00		
Unknown	192.168.254.109	192.168.254.109									00:00:00:00:00:00		
Unknown	192.168.254.11	192.168.254.11									00:00:00:00:00:00		
Unknown	192.168.254.110	192.168.254.110									00:00:00:00:00:00		
Ok	192.168.254.112	192.168.254.112								INGENICO	54:7F:54:54:A1:22		
Unknown	192.168.254.12	192.168.254.12									00:00:00:00:00:00		
Ok	192.168.254.120	192.168.254.120								Verifone, Inc.	60:C7:98:35:2B:85		
Ok	192.168.254.121	192.168.254.121								Verifone, Inc.	60:C7:98:35:2C:E0		
Unknown	192.168.254.122	192.168.254.122									00:00:00:00:00:00		
Unknown	192.168.254.123	192.168.254.123									00:00:00:00:00:00		
Unknown	192.168.254.124	192.168.254.124									00:00:00:00:00:00		
Unknown	192.168.254.125	192.168.254.125									00:00:00:00:00:00		
Unknown	192.168.254.126	192.168.254.126									00:00:00:00:00:00		
Unknown	192.168.254.127	192.168.254.127									00:00:00:00:00:00		
Unknown	192.168.254.128	192.168.254.128									00:00:00:00:00:00		
Unknown	192.168.254.129	192.168.254.129									00:00:00:00:00:00		
Unknown	192.168.254.130	192.168.254.130									00:00:00:00:00:00		
Unknown	192.168.254.131	192.168.254.131									00:00:00:00:00:00		
Unknown	192.168.254.132	192.168.254.132									00:00:00:00:00:00		
Unknown	192.168.254.133	192.168.254.133									00:00:00:00:00:00		
Unknown	192.168.254.134	192.168.254.134									00:00:00:00:00:00		
Unknown	192.168.254.135	192.168.254.135									00:00:00:00:00:00		
Unknown	192.168.254.136	192.168.254.136									00:00:00:00:00:00		
Unknown	192.168.254.137	192.168.254.137									00:00:00:00:00:00		
Unknown	192.168.254.138	192.168.254.138									00:00:00:00:00:00		
Unknown	192.168.254.139	192.168.254.139									00:00:00:00:00:00		
Unknown	192.168.254.14	192.168.254.14									00:00:00:00:00:00		
Unknown	192.168.254.140	192.168.254.140									00:00:00:00:00:00		
Unknown	192.168.254.141	192.168.254.141									00:00:00:00:00:00		
Unknown	192.168.254.142	192.168.254.142									00:00:00:00:00:00		
Unknown	192.168.254.143	192.168.254.143									00:00:00:00:00:00		
Unknown	192.168.254.144	192.168.254.144									00:00:00:00:00:00		
Unknown	192.168.254.145	192.168.254.145									00:00:00:00:00:00		
Unknown	192.168.254.146	192.168.254.146									00:00:00:00:00:00		
Unknown	192.168.254.147	192.168.254.147									00:00:00:00:00:00		
Unknown	192.168.254.148	192.168.254.148									00:00:00:00:00:00		
Unknown	192.168.254.149	192.168.254.149									00:00:00:00:00:00		
Unknown	192.168.254.150	192.168.254.150									00:00:00:00:00:00		
Unknown	192.168.254.151	192.168.254.151									00:00:00:00:00:00		
Unknown	192.168.254.152	192.168.254.152									00:00:00:00:00:00		
Unknown	192.168.254.153	192.168.254.153									00:00:00:00:00:00		
Unknown	192.168.254.154	192.168.254.154									00:00:00:00:00:00		
Unknown	192.168.254.155	192.168.254.155									00:00:00:00:00:00		
Unknown	192.168.254.156	192.168.254.156									00:00:00:00:00:00		
Unknown	192.168.254.157	192.168.254.157									00:00:00:00:00:00		
Unknown	192.168.254.158	192.168.254.158									00:00:00:00:00:00		
Unknown	192.168.254.159	192.168.254.159									00:00:00:00:00:00		
Unknown	192.168.254.16	192.168.254.16									00:00:00:00:00:00		
Unknown	192.168.254.160	192.168.254.160									00:00:00:00:00:00		
Unknown	192.168.254.161	192.168.254.161									00:00:00:00:00:00		
Unknown	192.168.254.162	192.168.254.162									00:00:00:00:00:00		
Unknown	192.168.254.163	192.168.254.163									00:00:00:00:00:00		
Unknown	192.168.254.164	192.168.254.164									00:00:00:00:00:00		
Unknown	192.168.254.165	192.168.254.165									00:00:00:00:00:00		
Unknown	192.168.254.166	192.168.254.166									00:00:00:00:00:00		
Unknown	192.168.254.167	192.168.254.167									00:00:00:00:00:00		
Unknown	192.168.254.168	192.168.254.168									00:00:00:00:00:00		
Unknown	192.168.254.169	192.168.254.169									00:00:00:00:00:00		
Unknown	192.168.254.170	192.168.254.170									00:00:00:00:00:00		
Unknown	192.168.254.171	192.168.254.171									00:00:00:00:00:00		
Unknown	192.168.254.172	192.168.254.172									00:00:00:00:00:00		
Unknown	192.168.254.173	192.168.254.173									00:00:00:00:00:00		
Unknown	192.168.254.174	192.168.254.174									00:00:00:00:00:00		
Unknown	192.168.254.175	192.168.254.175									00:00:00:00:00:00		
Unknown	192.168.254.176	192.168.254.176									00:00:00:00:00:00		
Unknown	192.168.254.177	192.168.254.177									00:00:00:00:00:00		
Unknown	192.168.254.178	192.168.254.178									00:00:00:00:00:00		
Unknown	192.168.254.179	192.168.254.179									00:00:00:00:00:00		
Unknown	192.168.254.18	192.168.254.18									00:00:00:00:00:00		
Unknown	192.168.254.180	192.168.254.180									00:00:00:00:00:00		
Unknown	192.168.254.181	192.168.254.181									00:00:00:00:00:00		
Unknown	192.168.254.182	192.168.254.182									00:00:00:00:00:00		
Unknown	192.168.254.183	192.168.254.183									00:00:00:00:00:00		
Unknown	192.168.254.184	192.168.254.184									00:00:00:00:00:00		
Unknown	192.168.254.185	192.168.254.185									00:00:00:00:00:00		
Unknown	192.168.254.186	192.168.254.186									00:00:00:00:00:00		
Unknown	192.168.254.187	192.168.254.187									00:00:00:00:00:00		
Unknown	192.168.254.188	192.168.254.188									00:00:00:00:00:00		
Unknown	192.168.254.189	192.168.254.189									00:00:00:00:00:00		
Unknown	192.168.254.19	192.168.254.19									00:00:00:00:00:00		
Unknown	192.168.254.190	192.168.254.190									00:00:00:00:00:00		
Unknown	192.168.254.191	192.168.254.191									00:00:00:00:00:00		
Unknown	192.168.254.192	192.168.254.192									00:00:00:00:00:00		
Unknown	192.168.254.193	192.168.254.193									00:00:00:00:00:00		
Unknown	192.168.254.194	192.168.254.194									00:00:00:00:00:00		
Unknown	192.168.254.195	192.168.254.195									00:00:00:00:00:00		
Unknown	192.168.254.196	192.168.254.196									00:00:00:00:00:00		
Unknown	192.168.254.197	192.168.254.197									00:00:00:00:00:00		
Unknown	192.168.254.198	192.168.254.198									00:00:00:00:00:00		
Unknown	192.168.254.199	192.168.254.199									00:00:00:00:00:00		
Ok	192.168.254.2	192.168.254.2		GoAhead-Webs						Super Micro Computer, Inc.	00:25:90:3F:1E:A3		
Unknown	192.168.254.20	192.168.254.20									00:00:00:00:00:00		
Unknown	192.168.254.200	192.168.254.200									00:00:00:00:00:00		
Unknown	192.168.254.201	192.168.254.201									00:00:00:00:00:00		
Unknown	192.168.254.202	192.168.254.202									00:00:00:00:00:00		
Unknown	192.168.254.203	192.168.254.203									00:00:00:00:00:00		
Unknown	192.168.254.204	192.168.254.204									00:00:00:00:00:00		
Unknown	192.168.254.205	192.168.254.205									00:00:00:00:00:00		
Unknown	192.168.254.206	192.168.254.206									00:00:00:00:00:00		
Unknown	192.168.254.207	192.168.254.207									00:00:00:00:00:00		
Unknown	192.168.254.208	192.168.254.208									00:00:00:00:00:00		
Unknown	192.168.254.209	192.168.254.209									00:00:00:00:00:00		
Unknown	192.168.254.210	192.168.254.210									00:00:00:00:00:00		
Unknown	192.168.254.211	192.168.254.211									00:00:00:00:00:00		
Unknown	192.168.254.212	192.168.254.212									00:00:00:00:00:00		
Unknown	192.168.254.213	192.168.254.213									00:00:00:00:00:00		
Unknown	192.168.254.214	192.168.254.214									00:00:00:00:00:00		
Unknown	192.168.254.215	192.168.254.215									00:00:00:00:00:00		
Unknown	192.168.254.216	192.168.254.216									00:00:00:00:00:00		
Unknown	192.168.254.217	192.168.254.217									00:00:00:00:00:00		
Unknown	192.168.254.218	192.168.254.218									00:00:00:00:00:00		
Unknown	192.168.254.219	192.168.254.219									00:00:00:00:00:00		
Unknown	192.168.254.22	192.168.254.22									00:00:00:00:00:00		
Unknown	192.168.254.220	192.168.254.220									00:00:00:00:00:00		
Unknown	192.168.254.221	192.168.254.221									00:00:00:00:00:00		
Unknown	192.168.254.222	192.168.254.222									00:00:00:00:00:00		
Unknown	192.168.254.223	192.168.254.223									00:00:00:00:00:00		
Unknown	192.168.254.224	192.168.254.224									00:00:00:00:00:00		
Unknown	192.168.254.225	192.168.254.225									00:00:00:00:00:00		
Unknown	192.168.254.226	192.168.254.226									00:00:00:00:00:00		
Unknown	192.168.254.227	192.168.254.227									00:00:00:00:00:00		
Unknown	192.168.254.228	192.168.254.228									00:00:00:00:00:00		
Unknown	192.168.254.229	192.168.254.229									00:00:00:00:00:00		
Unknown	192.168.254.23	192.168.254.23									00:00:00:00:00:00		
Unknown	192.168.254.230	192.168.254.230									00:00:00:00:00:00		
Unknown	192.168.254.231	192.168.254.231									00:00:00:00:00:00		
Unknown	192.168.254.232	192.168.254.232									00:00:00:00:00:00		
Unknown	192.168.254.233	192.168.254.233									00:00:00:00:00:00		
Unknown	192.168.254.234	192.168.254.234									00:00:00:00:00:00		
Unknown	192.168.254.235	192.168.254.235									00:00:00:00:00:00		
Unknown	192.168.254.236	192.168.254.236									00:00:00:00:00:00		
Unknown	192.168.254.237	192.168.254.237									00:00:00:00:00:00		
Unknown	192.168.254.238	192.168.254.238									00:00:00:00:00:00		
Unknown	192.168.254.239	192.168.254.239									00:00:00:00:00:00		
Unknown	192.168.254.24	192.168.254.24									00:00:00:00:00:00		
Unknown	192.168.254.240	192.168.254.240									00:00:00:00:00:00		
Unknown	192.168.254.241	192.168.254.241									00:00:00:00:00:00		
Unknown	192.168.254.242	192.168.254.242									00:00:00:00:00:00		
Unknown	192.168.254.243	192.168.254.243									00:00:00:00:00:00		
Unknown	192.168.254.244	192.168.254.244									00:00:00:00:00:00		
Unknown	192.168.254.245	192.168.254.245									00:00:00:00:00:00		
Unknown	192.168.254.246	192.168.254.246									00:00:00:00:00:00		
Unknown	192.168.254.247	192.168.254.247									00:00:00:00:00:00		
Unknown	192.168.254.248	192.168.254.248									00:00:00:00:00:00		
Unknown	192.168.254.249	192.168.254.249									00:00:00:00:00:00		
Unknown	192.168.254.254	192.168.254.254									00:00:00:00:00:00		
Unknown	192.168.254.27	192.168.254.27									00:00:00:00:00:00		
Unknown	192.168.254.3	192.168.254.3									00:00:00:00:00:00		
Unknown	192.168.254.30	192.168.254.30									00:00:00:00:00:00		
Unknown	192.168.254.34	192.168.254.34									00:00:00:00:00:00		
Unknown	192.168.254.35	192.168.254.35									00:00:00:00:00:00		
Unknown	192.168.254.36	192.168.254.36									00:00:00:00:00:00		
Unknown	192.168.254.37	192.168.254.37									00:00:00:00:00:00		
Unknown	192.168.254.38	192.168.254.38									00:00:00:00:00:00		
Unknown	192.168.254.39	192.168.254.39									00:00:00:00:00:00		
Unknown	192.168.254.4	192.168.254.4									00:00:00:00:00:00		
Unknown	192.168.254.40	192.168.254.40									00:00:00:00:00:00		
Unknown	192.168.254.5	192.168.254.5									00:00:00:00:00:00		
Unknown	192.168.254.58	192.168.254.58									00:00:00:00:00:00		
Unknown	192.168.254.59	192.168.254.59									00:00:00:00:00:00		
Unknown	192.168.254.6	192.168.254.6									00:00:00:00:00:00		
Unknown	192.168.254.60	192.168.254.60									00:00:00:00:00:00		
Unknown	192.168.254.61	192.168.254.61									00:00:00:00:00:00		
Unknown	192.168.254.62	192.168.254.62									00:00:00:00:00:00		
Unknown	192.168.254.63	192.168.254.63									00:00:00:00:00:00		
Unknown	192.168.254.64	192.168.254.64									00:00:00:00:00:00		
Unknown	192.168.254.65	192.168.254.65									00:00:00:00:00:00		
Unknown	192.168.254.66	192.168.254.66									00:00:00:00:00:00		
Unknown	192.168.254.67	192.168.254.67									00:00:00:00:00:00		
Unknown	192.168.254.68	192.168.254.68									00:00:00:00:00:00		
Unknown	192.168.254.69	192.168.254.69									00:00:00:00:00:00		
Ok	192.168.254.7	192.168.254.7		GoAhead-Webs httpd						CISCO SYSTEMS, INC.	08:D0:9F:AE:47:AC		
Unknown	192.168.254.70	192.168.254.70									00:00:00:00:00:00		
Unknown	192.168.254.71	192.168.254.71									00:00:00:00:00:00		
Unknown	192.168.254.72	192.168.254.72									00:00:00:00:00:00		
Unknown	192.168.254.73	192.168.254.73									00:00:00:00:00:00		
Unknown	192.168.254.74	192.168.254.74									00:00:00:00:00:00		
Unknown	192.168.254.75	192.168.254.75									00:00:00:00:00:00		
Unknown	192.168.254.76	192.168.254.76									00:00:00:00:00:00		
Unknown	192.168.254.77	192.168.254.77									00:00:00:00:00:00		
Unknown	192.168.254.78	192.168.254.78									00:00:00:00:00:00		
Unknown	192.168.254.79	192.168.254.79									00:00:00:00:00:00		
Ok	192.168.254.8	192.168.254.8		GoAhead-Webs httpd						CISCO SYSTEMS, INC.	08:D0:9F:AB:36:26		
Unknown	192.168.254.80	192.168.254.80									00:00:00:00:00:00		
Unknown	192.168.254.81	192.168.254.81									00:00:00:00:00:00		
Unknown	192.168.254.82	192.168.254.82									00:00:00:00:00:00		
Unknown	192.168.254.83	192.168.254.83									00:00:00:00:00:00		
Unknown	192.168.254.84	192.168.254.84									00:00:00:00:00:00		
Unknown	192.168.254.85	192.168.254.85									00:00:00:00:00:00		
Unknown	192.168.254.86	192.168.254.86									00:00:00:00:00:00		
Unknown	192.168.254.87	192.168.254.87									00:00:00:00:00:00		
Unknown	192.168.254.88	192.168.254.88									00:00:00:00:00:00		
Unknown	192.168.254.89	192.168.254.89									00:00:00:00:00:00		
Ok	192.168.254.9	192.168.254.9		GoAhead-Webs httpd						CISCO SYSTEMS, INC.	08:D0:9F:AE:47:72		
Unknown	192.168.254.90	192.168.254.90									00:00:00:00:00:00		
Unknown	192.168.254.91	192.168.254.91									00:00:00:00:00:00		
Unknown	192.168.254.92	192.168.254.92									00:00:00:00:00:00		
Unknown	192.168.254.93	192.168.254.93									00:00:00:00:00:00		
Unknown	192.168.254.96	192.168.254.96									00:00:00:00:00:00		
Ok	3410DN-1335E2	192.168.254.98		Index (GoAhead-Webs embedded httpd)		ftp				RICOH COMPANY,LTD.	00:26:73:13:35:E2		
Ok	CLASS	192.168.254.253						CFWSQL, UpdateServicesPackages, WsusContent, WSUSTemp		Microsoft Corporation	00:15:5D:EB:4C:02		
Ok	GATE	192.168.254.1		IIS7 (Microsoft IIS httpd 7.5)				HP1606dn		Supermicro Computer, Inc.	00:30:48:DF:F3:57		
Ok	GVAPP	192.168.254.251		403 - Forbidden: Access is denied. (Microsoft IIS httpd 8.0)				address		Microsoft Corporation	00:15:5D:EB:4C:01		
Ok	GVVDC	192.168.254.252		Microsoft Internet Information Services 8 (Microsoft IIS httpd 8.0)				Admin Share, CertEnroll, Documents, evaluations, Faxin, HP2050, HPLJ2100, NETLOGON, Orientation, PCTIA, Programs, R, RemoteInstall, RICOH Aficio  MP 6002 (Open Lab), Ricoh Aficio MP6002 (Large Lab), RICOH Aficio SP 3410SF, Scans, Student, SYSVOL, Teacher, Users		Microsoft Corporation	00:15:5D:EB:4C:00		
Ok	HOST	192.168.254.250						Infrascale		Super Micro Computer, Inc.	00:25:90:65:26:92		
Ok	LAB1-01	192.168.254.41								ASUSTek COMPUTER INC.	F4:6D:04:47:46:BF		
Ok	LAB1-02	192.168.254.42								ASUSTek COMPUTER INC.	F4:6D:04:48:83:8F		
Ok	LAB1-03	192.168.254.43								ASUSTek COMPUTER INC.	F4:6D:04:48:84:2F		
Ok	LAB1-04	192.168.254.44								ASUSTek COMPUTER INC.	F4:6D:04:47:44:EF		
Ok	LAB1-05	192.168.254.45								ASUSTek COMPUTER INC.	F4:6D:04:48:83:F7		
Ok	LAB1-06	192.168.254.46								ASUSTek COMPUTER INC.	F4:6D:04:48:84:3F		
Ok	LAB1-07	192.168.254.47								ASUSTek COMPUTER INC.	F4:6D:04:48:84:4D		
Ok	LAB1-08	192.168.254.48								ASUSTek COMPUTER INC.	F4:6D:04:48:83:ED		
Ok	LAB1-09	192.168.254.49								ASUSTek COMPUTER INC.	F4:6D:04:47:46:38		
Ok	LAB1-10	192.168.254.50								ASUSTek COMPUTER INC.	F4:6D:04:47:45:93		
Ok	LAB1-11	192.168.254.51								ASUSTek COMPUTER INC.	F4:6D:04:47:47:57		
Ok	LAB1-12	192.168.254.52								ASUSTek COMPUTER INC.	F4:6D:04:48:84:34		
Ok	LAB1-13	192.168.254.53								ASUSTek COMPUTER INC.	F4:6D:04:47:46:3E		
Ok	LAB1-14	192.168.254.54								ASUSTek COMPUTER INC.	F4:6D:04:48:83:EF		
Ok	LAB1-15	192.168.254.55								ASUSTek COMPUTER INC.	F4:6D:04:48:83:77		
Dead	LAB1-16	192.168.254.56								ASUSTek COMPUTER INC.	F4:6D:04:48:83:6E		
Ok	LAB2-08	192.168.254.118								ASUSTek COMPUTER INC.	20:CF:30:EE:0A:52		
Dead	LAB2-15	192.168.254.119								ASUSTek COMPUTER INC.	20:CF:30:E8:60:CF		
Ok	LAB2-16	192.168.254.26								ASUSTek COMPUTER INC.	E0:CB:4E:0E:72:5A		
Ok	LAB2-19N	192.168.254.114								ASUSTek COMPUTER INC.	20:CF:30:EE:0A:E5		
Ok	MARYANN	192.168.254.31								Microsoft Corporation	00:15:5D:EB:4C:03		
Ok	NPI3E7F94	192.168.254.95		HP LaserJet P2055dn 192.168.254.95 (Virata-EmWeb 6.2.1)						Hewlett-Packard Company	2C:76:8A:3E:7F:94		
Ok	npi8da59e.gvvic.local	192.168.254.94		HP LaserJet Professional M1212nf MFP 192.168.254.94 (HP LaserJet CP1205nw or P1606 http config)						Hewlett Packard	E8:39:35:8D:A5:9E		
Ok	RNP0026736CA346	192.168.254.97		Web Image Monitor (Web-Server/3.0)		Ricoh Aficio MP 6002 ftpd 11.97				RICOH COMPANY,LTD.	00:26:73:6C:A3:46		
Ok	RNP0026739B07A0	192.168.254.99		Web Image Monitor (Web-Server/3.0)		Ricoh Aficio MP 6002 ftpd 11.97				RICOH COMPANY,LTD.	00:26:73:9B:07:A0		
Ok	WS_ACC_15	192.168.254.25								ASUSTek COMPUTER INC.	48:5B:39:95:38:58		
Ok	WS_C00_11	192.168.254.21								ASUSTek COMPUTER INC.	40:16:7E:AF:BF:8A		
Ok	WS_DIR_07	192.168.254.17								GIGA-BYTE TECHNOLOGY CO.,LTD.	94:DE:80:24:CF:43		
Ok	WS_ELT_16	192.168.254.116						2727		Hewlett-Packard Company	2C:27:D7:25:0F:01		
Dead	WS_ELT_16	192.168.254.102								Hewlett-Packard Company	2C:27:D7:25:0F:01		
Ok	WS_HMS_02	192.168.254.57						Lexmark Universal v2 XL			1C:87:2C:44:52:91		
Ok	WS_HMS_05	192.168.254.15						E120N		GIGA-BYTE TECHNOLOGY CO.,LTD.	94:DE:80:24:CF:CB		
Ok	WS_HMS_07	192.168.254.32								Micro-Star INTL CO., LTD.	D8:CB:8A:52:C8:6F		
Ok	WS_ILT_09	192.168.254.115						HP2727			1C:B7:2C:B0:1B:34		
Ok	WS_MED_11	192.168.254.33						HP LaserJet Ryan, Users		GIGA-BYTE TECHNOLOGY CO.,LTD.	94:DE:80:67:C3:A9		
Ok	WS_REC_06	192.168.254.108						HP LaserJet Professional P1606dn		ASUSTek COMPUTER INC.	78:24:AF:44:97:A8		
Ok	WS_REG_03	192.168.254.13						HP LaserJet M1319f MFP (Copy 1)		GIGA-BYTE TECHNOLOGY CO.,LTD.	94:DE:80:24:CE:F1		
Ok	WS_REG_13	192.168.254.117								Intel Corporate	68:05:CA:09:06:0D		
Ok	WS_REG_18	192.168.254.28								ASUSTek COMPUTER INC.	54:04:A6:A0:B1:F0		
Ok	WS_TEA_06	192.168.254.111								ASUSTek COMPUTER INC.	74:D0:2B:7E:62:0B		
Ok	WS_TEA_16	192.168.254.113								ASUSTEK COMPUTER INC.	10:BF:48:B5:F9:2E		
Dead	WS_TEA_19	192.168.254.29								ASUSTek COMPUTER INC.	C8:60:00:9A:C9:B4		
